<?xml version="1.0" encoding="UTF-8" standalone="no"?>
<svg
   width="3840"
   height="3840"
   version="1.1"
   viewBox="0 0 1016 1016"
   id="svg34"
   xmlns:xlink="http://www.w3.org/1999/xlink"
   xmlns="http://www.w3.org/2000/svg"
   xmlns:svg="http://www.w3.org/2000/svg"
   xmlns:rdf="http://www.w3.org/1999/02/22-rdf-syntax-ns#"
   xmlns:cc="http://creativecommons.org/ns#"
   xmlns:dc="http://purl.org/dc/elements/1.1/">
  <metadata
     id="metadata38">
    <rdf:RDF>
      <cc:Work
         rdf:about="">
        <dc:format>image/svg+xml</dc:format>
        <dc:type
           rdf:resource="http://purl.org/dc/dcmitype/StillImage" />
      </cc:Work>
    </rdf:RDF>
  </metadata>
  <defs
     id="defs20">
    <linearGradient
       id="c">
      <stop
         stop-color="#23bac2"
         offset="0"
         id="stop2" />
      <stop
         stop-color="#23bac2"
         stop-opacity=".0058084"
         offset="1"
         id="stop4" />
    </linearGradient>
    <radialGradient
       id="a"
       cx="508"
       cy="285.75"
       r="508"
       gradientTransform="matrix(1.0142754,0,0,1.0218635,-7.2566878,216.01051)"
       gradientUnits="userSpaceOnUse"
       fx="508"
       fy="285.75">
      <stop
         stop-color="#2656a8"
         offset="0"
         id="stop7" />
      <stop
         stop-color="#2f92bd"
         offset="0.32730374"
         id="stop9" />
      <stop
         stop-color="#622e78"
         offset="1"
         id="stop11"
         style="stop-color:#153873;stop-opacity:1" />
    </radialGradient>
    <filter
       id="b"
       x="-0.041846"
       y="-0.056276999"
       width="1.0836999"
       height="1.1126"
       color-interpolation-filters="sRGB">
      <feGaussianBlur
         stdDeviation="2.6078096"
         id="feGaussianBlur14" />
    </filter>
    <radialGradient
       id="f"
       cx="508"
       cy="285.75"
       r="508"
       gradientTransform="matrix(0.69839,0,0,0.39285,153.22,173.49)"
       gradientUnits="userSpaceOnUse"
       xlink:href="#c" />
    <radialGradient
       id="e"
       cx="508"
       cy="285.75"
       r="508"
       gradientTransform="matrix(0.63003,0,0,0.39285,187.94,173.49)"
       gradientUnits="userSpaceOnUse"
       xlink:href="#c" />
    <radialGradient
       id="d"
       cx="508"
       cy="285.75"
       r="508"
       gradientTransform="matrix(0.63003,0,0,0.39285,-34.306,-620.26)"
       gradientUnits="userSpaceOnUse"
       xlink:href="#c" />
    <clipPath
       clipPathUnits="userSpaceOnUse"
       id="clipPath2092">
      <circle
         style="opacity:0.152883;fill:#000000;fill-opacity:1;stroke-width:10.4792;stroke-linejoin:round"
         id="circle2094"
         cx="508"
         cy="505.49164"
         r="169.35667" />
    </clipPath>
    <filter
       style="color-interpolation-filters:sRGB"
       id="filter880"
       x="-0.3"
       width="1.6"
       y="-0.3"
       height="1.6">
      <feGaussianBlur
         stdDeviation="39.228981"
         id="feGaussianBlur882" />
    </filter>
    <filter
       style="color-interpolation-filters:sRGB"
       id="filter1044"
       x="-0.108"
       width="1.216"
       y="-0.21241009"
       height="1.4248202">
      <feGaussianBlur
         stdDeviation="53.376155"
         id="feGaussianBlur1046" />
    </filter>
    <filter
       style="color-interpolation-filters:sRGB"
       id="filter1048"
       x="-0.108"
       width="1.216"
       y="-0.21241007"
       height="1.4248201">
      <feGaussianBlur
         stdDeviation="53.376155"
         id="feGaussianBlur1050" />
    </filter>
  </defs>
  <rect
     y="0"
     width="1016"
     height="1016"
     fill="url(#a)"
     style="fill:url(#a);paint-order:fill markers stroke"
     id="rect22"
     x="0" />
  <circle
     style="opacity:0.15;fill:#1e488e;fill-opacity:1;stroke-width:9.70938;stroke-linejoin:round;filter:url(#filter880)"
     id="path848"
     cx="508"
     cy="285.75"
     r="156.91592"
     transform="matrix(1.0671019,0,0,1.0671019,-34.08778,203.07561)" />
  <use
     x="0"
     y="0"
     xlink:href="#rect22"
     id="use902"
     clip-path="url(#clipPath2092)"
     width="100%"
     height="100%"
     transform="matrix(0.9887138,0,0,0.9887138,5.7333869,5.7333878)" />
  <path
     id="circle852"
     style="opacity:1;fill:#23bac2;fill-opacity:1;stroke-width:36.6969;stroke-linejoin:round;filter:url(#filter1044)"
     d="M 1920,486.93164 A 593.06806,593.06806 0 0 0 1326.9316,1080 a 593.06806,593.06806 0 0 0 0.084,9.9766 A 593.06806,593.06806 0 0 1 1920,506.93164 593.06806,593.06806 0 0 1 2512.9844,1090.0234 593.06806,593.06806 0 0 0 2513.0684,1080 593.06806,593.06806 0 0 0 1920,486.93164 Z"
     transform="matrix(0.28233738,0,0,0.28233738,-34.08778,203.07561)" />
  <path
     id="circle856"
     style="opacity:1;fill:#23bac2;fill-opacity:1;stroke-width:36.6969;stroke-linejoin:round;filter:url(#filter1048)"
     d="M 1327.0156,1069.9766 A 593.06806,593.06806 0 0 0 1326.9316,1080 593.06806,593.06806 0 0 0 1920,1673.0684 593.06806,593.06806 0 0 0 2513.0684,1080 a 593.06806,593.06806 0 0 0 -0.084,-9.9766 A 593.06806,593.06806 0 0 1 1920,1653.0684 593.06806,593.06806 0 0 1 1327.0156,1069.9766 Z"
     transform="matrix(0.28233738,0,0,0.28233738,-34.08778,203.07561)" />
</svg>
